wave.vcd
$date
	Tue Mar 10 13:57:58 2026
$end
$version
	Icarus Verilog
$end
$timescale
	1ps
$end
$scope module tb $end
$scope module stim1 $end
$var wire 1 ! clk $end
$upscope $end
$upscope $end
$scope module tb $end
$var wire 1 " tb_mismatch $end
$upscope $end
$scope module tb $end
$var reg 1 ! clk $end
$upscope $end
$scope module tb $end
$var wire 1 # areset $end
$upscope $end
$scope module tb $end
$var wire 1 $ bump_left $end
$upscope $end
$scope module tb $end
$var wire 1 % bump_right $end
$upscope $end
$scope module tb $end
$var wire 1 & walk_left_ref $end
$upscope $end
$scope module tb $end
$var wire 1 ' walk_left_dut $end
$upscope $end
$scope module tb $end
$var wire 1 ( walk_right_ref $end
$upscope $end
$scope module tb $end
$var wire 1 ) walk_right_dut $end
$upscope $end
$enddefinitions $end
$comment Show the parameter values. $end
$dumpall
$end
#0
$dumpvars
0)
0(
1'
1&
1%
1$
1#
0"
0!
$end
#5
1!
#10
0!
#15
0#
1!
#20
0!
#25
1)
0"
0'
0&
1(
1!
#30
0!
#35
0"
0)
1&
0(
1'
1!
#40
0!
#45
1)
0"
0'
0&
1(
1!
#50
0"
0)
1&
0(
1'
1#
0!
#55
1!
#60
0!
#65
0#
1!
#70
0!
#75
1)
0"
0'
0&
1(
1!
#80
0!
#85
0"
0)
1&
0(
1'
1!
#90
0!
#95
1)
0"
0'
0&
1(
0$
1!
#100
0!
#105
0"
0)
1&
0(
1'
1!
#110
0!
#115
1"
1)
0'
0%
1$
1!
#120
0!
#125
0)
0&
1(
1'
1!
#130
0!
#135
0"
1)
0'
1!
#140
0!
#145
1"
0)
1'
1!
#150
0$
0!
#155
1$
1!
#160
0$
0!
#165
1!
#170
0!
#175
1!
#180
1$
0!
#185
0"
1)
0'
1%
0$
1!
#190
0%
0!
#195
1$
1!
#200
0"
0)
1&
0(
1'
1#
1%
0$
0!
#205
0#
0%
1!
#210
1%
0!
#215
1"
1)
0'
1$
1!
#220
0$
0!
#225
0"
0)
1'
1$
1!
#230
0%
0$
0!
#235
1!
#240
0!
#245
1%
1!
#250
0%
0!
#255
1$
1!
#260
1%
0$
0!
#265
1"
1)
0'
0%
1$
1!
#270
0$
0!
#275
1!
#280
0!
#285
1$
1!
#290
0!
#295
0)
0&
1(
1'
0$
1!
#300
1$
0!
#305
0"
1)
0'
0$
1!
#310
1%
1$
0!
#315
0"
0)
1&
0(
1'
0%
0$
1!
#320
1%
0!
#325
1"
1)
0'
1!
#330
0!
#335
0"
0)
1'
1$
1!
#340
0%
0$
0!
#345
1%
1!
#350
0%
1$
0!
#355
0"
1)
0&
1(
0'
1!
#360
0$
0!
#365
1%
1!
#370
0%
0!
#375
1%
1!
#380
0!
#385
0)
0"
1'
1&
0(
0%
1!
#390
0!
#395
1$
1!
#400
0!
#405
1)
0"
0'
0&
1(
1%
0$
1!
#410
0%
0!
#415
1!
#420
0!
#425
1!
#430
1$
0!
#435
1"
0)
1'
1%
0$
1!
#440
0%
0!
#445
1%
1!
#450
0%
0!
#455
0"
1&
0(
1#
1%
1!
#460
0#
0!
#465
1"
1)
0'
0%
1!
#470
1%
0!
#475
0"
0)
1'
0%
1!
#480
1$
0!
#485
0"
1)
0&
1(
0'
0$
1!
#490
1$
0!
#495
1"
0)
1'
0$
1!
#500
0!
#505
1!
#510
1%
0!
#515
1)
0'
1&
0(
1!
#520
0%
0!
#525
1!
#530
1%
1$
0!
#535
0)
1'
0&
1(
0%
0$
1!
#540
0!
#545
1%
1!
#550
0%
0!
#555
1!
#560
0!
#565
1%
1$
1!
#570
0%
0$
0!
#575
1!
#580
1%
0!
#585
1)
1&
0(
0'
0%
1$
1!
#590
0$
0!
#595
1!
#600
1$
0!
#605
0)
0&
1(
1'
1%
0$
1!
#610
0%
0!
#615
1!
#620
1$
0!
#625
0"
1)
0'
1!
#630
0!
#635
1"
0)
1'
0$
1!
#640
0!
#645
1$
1!
#650
0!
#655
0"
1)
0'
0$
1!
#660
1$
0!
#665
1"
0)
1'
1!
#670
0$
0!
#675
1$
1!
#680
1%
0$
0!
#685
1)
1&
0(
0'
1!
#690
0%
0!
#695
0"
0)
1'
1#
1!
#700
0#
0!
#705
1!
#710
1$
0!
#715
0"
1)
0&
1(
0'
1!
#720
0!
#725
1"
0)
1'
1%
0$
1!
#730
0%
0!
#735
1%
1!
#740
0"
1&
0(
1#
0%
0!
#745
0#
1!
#750
1$
0!
#755
1)
0"
0'
0&
1(
0$
1!
#760
1%
1$
0!
#765
0"
0)
1&
0(
1'
0%
1!
#770
1#
0$
0!
#775
0#
1!
#780
0!
#785
1!
#790
1%
0!
#795
0"
0)
1'
1#
0%
1!
#800
0#
1%
0!
#805
1"
1)
0'
0%
1!
#810
0!
#815
1!
#820
0!
#825
1!
#830
1%
0!
#835
0"
0)
1'
0%
1!
#840
0!
#845
1$
1!
#850
0$
0!
#855
1!
#860
0!
#865
1%
1$
1!
#870
0%
0$
0!
#875
1!
#880
1%
0!
#885
1"
1)
0'
0%
1!
#890
1%
0!
#895
0"
0)
1'
0%
1!
#900
0!
#905
1!
#910
1$
0!
#915
1)
0"
0'
0&
1(
0$
1!
#920
0!
#925
1!
#930
0!
#935
1$
1!
#940
0$
0!
#945
1!
#950
1%
0!
#955
0)
0"
1'
1&
0(
0%
1!
#960
1$
0!
#965
0"
1)
0&
1(
0'
0$
1!
#970
0!
#975
1%
1!
#980
0%
0!
#985
1%
1!
#990
0%
0!
#995
1!
#1000
1%
1$
0!
#1005
0"
0)
1&
0(
1'
0%
1!
#1010
0!
#1015
1)
0"
0'
0&
1(
0$
1!
#1020
0!
#1025
1$
1!
#1030
0!
#1035
1"
0)
1'
1%
1!
#1040
0%
0$
0!
#1045
1!
#1050
0!
#1055
1!
#1060
1$
0!
#1065
0"
1)
0'
1%
0$
1!
#1070
0%
0!
#1075
1$
1!
#1080
0$
0!
#1085
1!
#1090
0!
#1095
1!
#1100
0!
#1105
1!
#1110
0!
#1115
1!
#1120
0"
0)
1&
0(
1'
1#
0!
#1125
0#
1!
#1130
1$
0!
#1135
0"
1)
0&
1(
0'
0$
1!
#1140
0!
#1145
1%
1!
