wave.vcd
$date
	Wed Feb 25 15:35:59 2026
$end
$version
	Icarus Verilog
$end
$timescale
	1ps
$end
$scope module tb $end
$scope module stim1 $end
$var wire 1 ! clk $end
$upscope $end
$upscope $end
$scope module tb $end
$var wire 1 " tb_mismatch $end
$upscope $end
$scope module tb $end
$var wire 1 # in $end
$upscope $end
$scope module tb $end
$var wire 1 $ out_ref $end
$upscope $end
$scope module tb $end
$var wire 1 % out_dut $end
$upscope $end
$enddefinitions $end
$comment Show the parameter values. $end
$dumpall
$end
#0
$dumpvars
1%
1$
0#
0"
0!
$end
#5
1!
#10
0!
#15
0"
0%
0$
1#
1!
#20
0!
#25
1!
#30
0!
#35
1!
#40
0!
#45
1!
#50
0!
#55
1!
#60
0!
#65
1!
#70
0!
#75
0"
1%
1$
0#
1!
#80
0!
#85
0"
0%
0$
1#
1!
#90
0!
#95
1!
#100
0!
#105
0"
1%
1$
0#
1!
#110
0!
#115
0"
0%
0$
1#
1!
#120
0!
#125
1!
#130
0!
#135
0"
1%
1$
0#
1!
#140
0!
#145
0"
0%
0$
1#
1!
#150
0!
#155
0"
1%
1$
0#
1!
#160
0!
#165
0"
0%
0$
1#
1!
#170
0!
#175
0"
1%
1$
0#
1!
#180
0!
#185
0"
0%
0$
1#
1!
#190
0!
#195
1!
#200
0"
1%
1$
0#
0!
#205
0"
0%
0$
1#
1!
#210
0"
1%
1$
0#
0!
#215
1!
#220
0!
#225
0"
0%
0$
1#
1!
#230
0"
1%
1$
0#
0!
#235
0"
0%
0$
1#
1!
#240
0!
#245
1!
#250
0!
#255
0"
1%
1$
0#
1!
#260
0!
#265
1!
#270
0!
#275
0"
0%
0$
1#
1!
#280
0"
1%
1$
0#
0!
#285
0"
0%
0$
1#
1!
#290
0!
#295
1!
#300
0!
#305
1!
#310
0"
1%
1$
0#
0!
#315
1!
#320
0"
0%
0$
1#
0!
#325
1!
#330
0!
#335
0"
1%
1$
0#
1!
#340
0!
#345
1!
#350
0!
#355
1!
#360
0"
0%
0$
1#
0!
#365
0"
1%
1$
0#
1!
#370
0!
#375
0"
0%
0$
1#
1!
#380
0!
#385
0"
1%
1$
0#
1!
#390
0!
#395
1!
#400
0!
#405
1!
#410
0"
0%
0$
1#
0!
#415
1!
#420
0!
#425
1!
#430
0!
#435
0"
1%
1$
0#
1!
#440
0!
#445
0"
0%
0$
1#
1!
#450
0!
#455
1!
#460
0"
1%
1$
0#
0!
#465
1!
#470
0"
0%
0$
1#
0!
#475
1!
#480
0"
1%
1$
0#
0!
#485
0"
0%
0$
1#
1!
#490
0!
#495
0"
1%
1$
0#
1!
#500
0"
0%
0$
1#
0!
#505
1!
#510
0!
#515
0"
1%
1$
0#
1!
#520
0"
0%
0$
1#
0!
#525
1!
#530
0"
1%
1$
0#
0!
#535
1!
#540
0!
#545
1!
#550
0"
0%
0$
1#
0!
#555
1!
#560
0"
1%
1$
0#
0!
#565
1!
#570
0"
0%
0$
1#
0!
#575
1!
#580
0!
#585
1!
#590
0!
#595
0"
1%
1$
0#
1!
#600
0"
0%
0$
1#
0!
#605
1!
#610
0!
#615
0"
1%
1$
0#
1!
#620
0!
#625
1!
#630
0!
#635
1!
#640
0!
#645
1!
#650
0"
0%
0$
1#
0!
#655
1!
#660
0!
#665
1!
#670
0!
#675
0"
1%
1$
0#
1!
#680
0"
0%
0$
1#
0!
#685
1!
#690
0"
1%
1$
0#
0!
#695
1!
#700
0"
0%
0$
1#
0!
#705
1!
#710
0"
1%
1$
0#
0!
#715
0"
0%
0$
1#
1!
#720
0!
#725
1!
#730
0!
#735
0"
1%
1$
0#
1!
#740
0!
#745
1!
#750
0"
0%
0$
1#
0!
#755
0"
1%
1$
0#
1!
#760
0!
#765
1!
#770
0"
0%
0$
1#
0!
#775
1!
#780
0"
1%
1$
0#
0!
#785
1!
#790
0"
0%
0$
1#
0!
#795
0"
1%
1$
0#
1!
#800
0!
#805
1!
#810
0"
0%
0$
1#
0!
#815
0"
1%
1$
0#
1!
#820
0!
#825
0"
0%
0$
1#
1!
#830
0"
1%
1$
0#
0!
#835
0"
0%
0$
1#
1!
#840
0!
#845
1!
#850
0!
#855
1!
#860
0"
1%
1$
0#
0!
#865
1!
#870
0!
#875
0"
0%
0$
1#
1!
#880
0"
1%
1$
0#
0!
#885
1!
#890
0"
0%
0$
1#
0!
#895
1!
#900
0"
1%
1$
0#
0!
#905
1!
#910
0!
#915
0"
0%
0$
1#
1!
#920
0!
#925
0"
1%
1$
0#
1!
#930
0!
#935
1!
#940
0"
0%
0$
1#
0!
#945
1!
#950
0"
1%
1$
0#
0!
#955
1!
#960
0!
#965
0"
0%
0$
1#
1!
#970
0"
1%
1$
0#
0!
#975
1!
#980
0"
0%
0$
1#
0!
#985
0"
1%
1$
0#
1!
#990
0!
#995
1!
#1000
0"
0%
0$
1#
0!
#1005
0"
1%
1$
0#
1!
#1010
0"
0%
0$
1#
0!
#1015
1!
#1020
0"
1%
1$
0#
0!
#1025
1!
#1030
0!
#1035
1!
#1040
0"
0%
0$
1#
0!
#1045
0"
1%
1$
0#
1!
#1050
0!
#1055
1!
#1060
0!
#1065
0"
0%
0$
1#
1!
#1070
0!
#1075
1!
#1080
0"
1%
1$
0#
0!
#1085
0"
0%
0$
1#
1!
#1090
0!
#1095
1!
#1100
0"
1%
1$
0#
0!
#1105
1!
#1110
0"
0%
0$
1#
0!
#1115
1!
#1120
0!
#1125
1!
#1130
0!
#1135
0"
1%
1$
0#
1!
#1140
0"
0%
0$
1#
0!
#1145
1!
#1150
0"
1%
1$
0#
0!
#1155
1!
#1160
0!
#1165
1!
#1170
0"
0%
0$
1#
0!
#1175
1!
#1180
0"
1%
1$
0#
0!
#1185
1!
#1190
0"
0%
0$
1#
0!
#1195
0"
1%
1$
0#
1!
