wave.vcd
$date
	Tue Mar 10 17:19:17 2026
$end
$version
	Icarus Verilog
$end
$timescale
	1ps
$end
$scope module tb $end
$scope module stim1 $end
$var wire 1 ! clk $end
$upscope $end
$upscope $end
$scope module tb $end
$var wire 1 " tb_mismatch $end
$upscope $end
$scope module tb $end
$var reg 1 ! clk $end
$upscope $end
$scope module tb $end
$var wire 1 # aresetn $end
$upscope $end
$scope module tb $end
$var wire 1 $ x $end
$upscope $end
$scope module tb $end
$var wire 1 % z_ref $end
$upscope $end
$scope module tb $end
$var wire 1 & z_dut $end
$upscope $end
$enddefinitions $end
$comment Show the parameter values. $end
$dumpall
$end
#0
$dumpvars
0&
0%
0$
0#
0"
0!
$end
#5
1#
1!
#10
0!
#15
1!
#20
0!
#25
1!
#30
0!
#35
1$
1!
#40
0!
#45
0$
1!
#50
0!
#55
0"
1%
1&
1$
1!
#60
0"
0&
0%
0#
0!
#65
1!
#70
0!
#75
1#
1!
#80
0!
#85
0$
1!
#90
0!
#95
1!
#100
0!
#105
1!
#110
0!
#115
1$
1!
#120
0!
#125
0$
1!
#130
0!
#135
0"
1%
1&
1$
1!
#140
0!
#145
0"
0%
0&
0$
1!
#150
0!
#155
1"
1%
1$
1!
#160
0!
#165
0"
0%
1!
#170
0!
#175
0$
1!
#180
0!
#185
0"
1%
1&
1$
1!
#190
0!
#195
0"
0%
0&
0$
1!
#200
0!
#205
1!
#210
1"
1%
1$
0!
#215
0"
0%
1!
#220
0!
#225
1!
#230
0$
0!
#235
0"
1%
1&
1$
1!
#240
0!
#245
0"
0%
0&
1!
#250
0!
#255
0$
1!
#260
0!
#265
1!
#270
0!
#275
1$
1!
#280
0!
#285
0#
0$
1!
#290
1#
0!
#295
1!
#300
1$
0!
#305
1!
#310
0$
0!
#315
0"
1%
1&
1$
1!
#320
0!
#325
0"
0%
0&
0$
1!
#330
0!
#335
1"
1%
1$
1!
#340
0"
0%
0$
0!
#345
1$
1!
#350
0$
0!
#355
1!
#360
1$
0!
#365
1!
#370
0!
#375
0$
1!
#380
1$
0!
#385
0$
1!
#390
1$
0!
#395
0$
1!
#400
1$
0!
#405
1!
#410
0!
#415
1!
#420
0$
0!
#425
1!
#430
0"
1%
1&
1$
0!
#435
0"
0%
0&
0$
1!
#440
1$
0!
#445
1!
#450
0!
#455
1!
#460
0!
#465
0$
1!
#470
0!
#475
1!
#480
0"
1%
1&
1$
0!
#485
0"
0&
0%
1!
#490
0!
#495
1!
#500
0$
0!
#505
0"
1%
1&
1$
1!
#510
0"
0%
0&
0$
0!
#515
1$
1!
#520
0!
#525
0$
1!
#530
1$
0!
#535
0$
1!
#540
1$
0!
#545
0$
1!
#550
1$
0!
#555
0$
1!
#560
1$
0!
#565
0$
1!
#570
0!
#575
0"
1%
1&
1$
1!
#580
0!
#585
0"
0%
0&
0$
1!
#590
0!
#595
1!
#600
1"
1%
1$
0!
#605
0"
0%
0$
1!
#610
0!
#615
0"
1%
1&
1$
1!
#620
0"
0%
0&
0$
0!
#625
1$
1!
#630
0$
0!
#635
1!
#640
0!
#645
1$
1!
#650
0$
0!
#655
1$
1!
#660
0!
#665
0#
0$
1!
#670
1#
0!
#675
1$
1!
#680
0$
0!
#685
1!
#690
1$
0!
#695
0$
1!
#700
1$
0!
#705
0$
1!
#710
1$
0!
#715
1!
#720
0!
#725
1!
#730
0$
0!
#735
1!
#740
0"
1%
1&
1$
0!
#745
0"
0%
0&
0$
1!
#750
1$
0!
#755
0$
1!
#760
0!
#765
0"
1%
1&
1$
1!
#770
0"
0%
0&
0$
0!
#775
1$
1!
#780
0$
0!
#785
1!
#790
0!
#795
1$
1!
#800
0$
0!
#805
1!
#810
0!
#815
1!
#820
1$
0!
#825
1!
#830
0!
#835
0$
1!
#840
1$
0!
#845
0$
1!
#850
1$
0!
#855
0$
1!
#860
1$
0!
#865
0$
1!
#870
0!
#875
0"
1%
1&
1$
1!
#880
0!
#885
0"
0%
0&
0$
1!
#890
0!
#895
1!
#900
1"
1%
1$
0!
#905
0"
0%
0$
1!
#910
1$
0!
#915
1!
#920
0!
#925
1!
#930
0!
#935
0$
1!
#940
0!
#945
1!
#950
0"
1%
1&
1$
0!
#955
0"
0&
0%
1!
#960
0!
#965
0$
1!
#970
1$
0!
#975
1!
#980
0!
#985
1!
#990
0$
0!
#995
0"
1%
1&
1$
1!
#1000
0"
0%
0&
0$
0!
#1005
1!
#1010
0!
#1015
0#
1!
#1020
1#
0!
#1025
0#
1$
1!
#1030
1#
0$
0!
#1035
1!
#1040
0!
#1045
1$
1!
#1050
0!
#1055
1!
#1060
0!
#1065
1!
#1070
0!
#1075
0$
1!
#1080
1$
0!
#1085
1!
#1090
0$
0!
#1095
0#
1!
#1100
1#
0!
#1105
1$
1!
#1110
0!
#1115
0$
1!
#1120
1$
0!
#1125
1!
#1130
0!
#1135
0$
1!
#1140
0!
#1145
1!
#1150
0"
1%
1&
1$
0!
#1155
0"
0%
0&
0$
1!
#1160
0!
#1165
1"
1%
1$
1!
#1170
0"
0%
0$
0!
#1175
0#
1!
#1180
1#
0!
#1185
1!
#1190
0!
#1195
1$
1!
#1200
0!
#1205
0$
1!
#1210
0!
#1215
1!
#1220
0!
#1225
1$
1!
#1230
0!
#1235
1!
#1240
0$
0!
#1245
1!
#1250
0"
1%
1&
1$
0!
#1255
0"
0%
0&
0$
1!
#1260
1$
0!
#1265
0$
1!
#1270
0#
1$
0!
#1275
1#
0$
1!
#1280
1$
0!
#1285
0$
1!
#1290
0!
#1295
0"
1%
1&
1$
1!
#1300
0"
0%
0&
0$
0!
#1305
1$
1!
#1310
0$
0!
#1315
1$
1!
#1320
0#
0!
#1325
1#
1!
#1330
0$
0!
#1335
1$
1!
#1340
0$
0!
#1345
1$
1!
#1350
0$
0!
#1355
1$
1!
#1360
0$
0!
#1365
1!
#1370
1$
0!
#1375
0$
1!
#1380
0!
#1385
0"
1%
1&
1$
1!
#1390
0"
0&
0%
0#
0!
#1395
1#
0$
1!
#1400
0!
#1405
1!
#1410
1$
0!
#1415
0$
1!
#1420
1$
0!
#1425
0#
0$
1!
#1430
1#
1$
0!
#1435
0$
1!
#1440
1$
0!
#1445
0$
1!
#1450
1$
0!
#1455
0$
1!
#1460
1$
0!
#1465
1!
#1470
0$
0!
#1475
0"
1%
1&
1$
1!
#1480
0!
#1485
0"
0%
0&
0$
1!
#1490
1$
0!
#1495
1!
#1500
0!
#1505
0$
1!
#1510
0!
#1515
1!
#1520
0"
1%
1&
1$
0!
#1525
0"
0%
0&
1!
#1530
0!
#1535
1!
#1540
0$
0!
#1545
1!
#1550
0!
#1555
1!
#1560
1$
0!
#1565
0$
1!
#1570
1$
0!
#1575
0$
1!
#1580
0!
#1585
1!
#1590
0!
#1595
1$
1!
#1600
0$
0!
#1605
1!
#1610
0!
#1615
1$
1!
#1620
0$
0!
#1625
1!
#1630
1$
0!
#1635
0$
1!
#1640
0!
#1645
1!
#1650
0"
1%
1&
1$
0!
#1655
0"
0&
0%
1!
#1660
0$
0!
#1665
1!
#1670
1"
1%
1$
0!
#1675
0"
0%
1!
#1680
0!
#1685
0$
1!
#1690
0!
#1695
1!
#1700
0"
1%
1&
1$
0!
#1705
0"
0%
0&
1!
#1710
0!
#1715
1!
#1720
0$
0!
#1725
1!
#1730
0!
#1735
1$
1!
#1740
0!
#1745
1!
#1750
0!
#1755
0$
1!
#1760
1$
0!
#1765
0$
1!
#1770
0!
#1775
1!
#1780
0!
#1785
1$
1!
#1790
0$
0!
#1795
1!
#1800
1$
0!
#1805
1!
#1810
0$
0!
#1815
0"
1%
1&
1$
1!
#1820
0!
#1825
0"
0%
0&
1!
#1830
0!
#1835
0$
1!
#1840
0!
#1845
0"
1%
1&
1$
1!
#1850
0"
0%
0&
0$
0!
#1855
1!
#1860
0#
0!
#1865
1#
1!
#1870
1$
0!
#1875
0$
1!
#1880
1$
0!
#1885
1!
#1890
0!
#1895
1!
#1900
0!
#1905
0$
1!
#1910
1$
0!
#1915
0$
1!
#1920
1$
0!
#1925
0$
1!
#1930
0!
#1935
0"
1%
1&
1$
1!
#1940
0!
#1945
0"
0&
0%
1!
#1950
0$
0!
#1955
1!
#1960
0!
#1965
1$
1!
#1970
0$
0!
#1975
1$
1!
#1980
0!
#1985
0$
1!
#1990
0!
#1995
0"
1%
1&
1$
1!
#2000
0"
0%
0&
0$
0!
#2005
1$
1!
#2010
0!
#2015
0#
1!
#2020
1#
0$
0!
#2025
1$
1!
#2030
0!
#2035
0$
1!
#2040
0#
0!
#2045
1#
1$
1!
#2050
0!
#2055
0$
1!
#2060
1$
0!
#2065
1!
#2070
0!
#2075
0$
1!
#2080
1$
0!
#2085
0$
1!
#2090
0#
0!
#2095
1#
1$
1!
#2100
0!
#2105
0$
1!
#2110
1$
0!
#2115
1!
#2120
0$
0!
#2125
0"
1%
1&
1$
1!
#2130
0"
0%
0&
0$
0!
#2135
1!
#2140
0!
#2145
1$
1!
#2150
0$
0!
#2155
1!
#2160
1$
0!
#2165
1!
#2170
0$
0!
#2175
0"
1%
1&
1$
1!
#2180
0"
0%
0&
0$
0!
#2185
1!
#2190
1$
0!
#2195
1!
#2200
0$
0!
