wave.vcd
$date
	Sat Mar  7 17:22:32 2026
$end
$version
	Icarus Verilog
$end
$timescale
	1ps
$end
$scope module tb $end
$scope module stim1 $end
$var wire 1 ! clk $end
$upscope $end
$upscope $end
$scope module tb $end
$var wire 1 " tb_mismatch $end
$upscope $end
$scope module tb $end
$var wire 32 # in [31:0] $end
$upscope $end
$scope module tb $end
$var wire 32 $ out_ref [31:0] $end
$upscope $end
$scope module tb $end
$var wire 32 % out_dut [31:0] $end
$upscope $end
$enddefinitions $end
$comment Show the parameter values. $end
$dumpall
$end
#0
$dumpvars
bx %
bx $
bx #
0"
0!
$end
#5
0"
b100100001101010001010100010010 %
b100100001101010001010100010010 $
b10010000101010011010100100100 #
1!
#10
0"
b10000001010111101000100111000000 %
b10000001010111101000100111000000 $
b11000000100010010101111010000001 #
0!
#15
0"
b1001110101101000010010000100 %
b1001110101101000010010000100 $
b10000100100001001101011000001001 #
1!
#20
0"
b1100011010101101111000010110001 %
b1100011010101101111000010110001 $
b10110001111100000101011001100011 #
0!
#25
0"
b1101011110111011100100000110 %
b1101011110111011100100000110 $
b110101110010111101100001101 #
1!
#30
0"
b10001101100110011101111101000110 %
b10001101100110011101111101000110 $
b1000110110111111001100110001101 #
0!
#35
0"
b1100101100001001100001010110010 %
b1100101100001001100001010110010 $
b10110010110000101000010001100101 #
1!
#40
0"
b10010010100100011011110001001 %
b10010010100100011011110001001 $
b10001001001101110101001000010010 #
0!
#45
0"
b1111000111111001100000000 %
b1111000111111001100000000 $
b111100111110001100000001 #
1!
#50
0"
b1101110011011101011100000110 %
b1101110011011101011100000110 $
b110110101111100110100001101 #
0!
#55
0"
b1110110111100010010001100111011 %
b1110110111100010010001100111011 $
b111011001000111111000101110110 #
1!
#60
0"
b111101110011011000110100011110 %
b111101110011011000110100011110 $
b11110100011011100110100111101 #
0!
#65
0"
b11101101010101111101010001110110 %
b11101101010101111101010001110110 $
b1110110110101000101011111101101 #
1!
#70
0"
b10001100111101110010110101000110 %
b10001100111101110010110101000110 $
b1000110001011011111011110001100 #
0!
#75
0"
b11111001111010011111110101111100 %
b11111001111010011111110101111100 $
b1111100111111011110100111111001 #
1!
#80
0"
b11000110001001000011011111100011 %
b11000110001001000011011111100011 $
b11100011001101110010010011000110 #
0!
#85
0"
b11000101100001001111011111100010 %
b11000101100001001111011111100010 $
b11100010111101111000010011000101 #
1!
#90
0"
b10101010110100100001001111010101 %
b10101010110100100001001111010101 $
b11010101000100111101001010101010 #
0!
#95
0"
b11100101111101111010111101110010 %
b11100101111101111010111101110010 $
b1110010101011111111011111100101 #
1!
#100
0"
b1110111011100101101001010111011 %
b1110111011100101101001010111011 $
b10111011110100100111001001110111 #
0!
#105
0"
b10010110101100011001010001001 %
b10010110101100011001010001001 $
b10001001001100101101011000010010 #
1!
#110
0"
b10001111110110111110110001000111 %
b10001111110110111110110001000111 $
b1000111111011001101101110001111 #
0!
#115
0"
b11110010011010010011000001111001 %
b11110010011010010011000001111001 $
b1111001001100000110100111110010 #
1!
#120
0"
b11001110100101100111011011100111 %
b11001110100101100111011011100111 $
b11100111011101101001011011001110 #
0!
#125
0"
b11101000011110100000000011110100 %
b11101000011110100000000011110100 $
b11110100000000000111101011101000 #
1!
#130
0"
b11000101010011101100101011100010 %
b11000101010011101100101011100010 $
b11100010110010100100111011000101 #
0!
#135
0"
b1011100010010010101100000101110 %
b1011100010010010101100000101110 $
b101110010110000100100101011100 #
1!
#140
0"
b10111101001010001000111011011110 %
b10111101001010001000111011011110 $
b11011110100011100010100010111101 #
0!
#145
0"
b101101010110001010101110010110 %
b101101010110001010101110010110 $
b10010110101010110101100000101101 #
1!
#150
0"
b1100101001001101010011110110010 %
b1100101001001101010011110110010 $
b10110010101001110010011001100101 #
0!
#155
0"
b1100011011000101110111110110001 %
b1100011011000101110111110110001 $
b10110001111011110110001001100011 #
1!
#160
0"
b1010100001110111001100000101 %
b1010100001110111001100000101 $
b101011100111000011100001010 #
0!
#165
0"
b10000000001000100011101111000000 %
b10000000001000100011101111000000 $
b11000000001110110010001010000000 #
1!
#170
0"
b100000001000010110010000010000 %
b100000001000010110010000010000 $
b10000011001000010000100100000 #
0!
#175
0"
b10101010010001010111100001010101 %
b10101010010001010111100001010101 $
b1010101011110000100010110101010 #
1!
#180
0"
b10011101110011001100110011001110 %
b10011101110011001100110011001110 $
b11001110110011001100110010011101 #
0!
#185
0"
b10010110001111100010000011001011 %
b10010110001111100010000011001011 $
b11001011001000000011111010010110 #
1!
#190
0"
b10011101110001000001110001001 %
b10011101110001000001110001001 $
b10001001100000111011100000010011 #
0!
#195
0"
b1101001110001011110010000110 %
b1101001110001011110010000110 $
b10000110101111000011100000001101 #
1!
#200
0"
b1010011110101101010011110101001 %
b1010011110101101010011110101001 $
b10101001101001111101011001010011 #
0!
#205
0"
b1101011110111011001111100110101 %
b1101011110111011001111100110101 $
b110101100111111101110101101011 #
1!
#210
0"
b11010101001010101010011011101010 %
b11010101001010101010011011101010 $
b11101010101001100010101011010101 #
0!
#215
0"
b10010010100001011110000001 %
b10010010100001011110000001 $
b10000001000101110100101000000010 #
1!
#220
0"
b10101110001111100101011011010111 %
b10101110001111100101011011010111 $
b11010111010101100011111010101110 #
0!
#225
0"
b11101111010011111111100001110 %
b11101111010011111111100001110 $
b1110111111111110100100011101 #
1!
#230
0"
b11001111011100101100010111100111 %
b11001111011100101100010111100111 $
b11100111110001010111001011001111 #
0!
#235
0"
b100011010010011000010000010001 %
b100011010010011000010000010001 $
b10001100001000100100100100011 #
1!
#240
0"
b1010011001010000100100000101 %
b1010011001010000100100000101 $
b101000010010110010100001010 #
0!
#245
0"
b11001010000010100111001111100101 %
b11001010000010100111001111100101 $
b11100101011100110000101011001010 #
1!
#250
0"
b111100010011000011000110011110 %
b111100010011000011000110011110 $
b10011110001100010100110000111100 #
0!
#255
0"
b11110010101111010110100001111001 %
b11110010101111010110100001111001 $
b1111001011010001011110111110010 #
1!
#260
0"
b10001010011000010010111001000101 %
b10001010011000010010111001000101 $
b1000101001011100110000110001010 #
0!
#265
0"
b1000001101100111100010000100000 %
b1000001101100111100010000100000 $
b100000110001001011001101000001 #
1!
#270
0"
b11011000001101000100101111101100 %
b11011000001101000100101111101100 $
b11101100010010110011010011011000 #
0!
#275
0"
b1111000111100110010000000111100 %
b1111000111100110010000000111100 $
b111100001000001111001101111000 #
1!
#280
0"
b10001001000100101000101011000100 %
b10001001000100101000101011000100 $
b11000100100010100001001010001001 #
0!
#285
0"
b11101011000011011100010101110101 %
b11101011000011011100010101110101 $
b1110101110001010000110111101011 #
1!
#290
0"
b10110110011001010000001001011011 %
b10110110011001010000001001011011 $
b1011011000000100110010110110110 #
0!
#295
0"
b11000110111110010100101101100011 %
b11000110111110010100101101100011 $
b1100011010010111111100111000110 #
1!
#300
0"
b10101110000100110001010101010111 %
b10101110000100110001010101010111 $
b1010111000101010001001110101110 #
0!
#305
0"
b10111100000000100111010111011110 %
b10111100000000100111010111011110 $
b11011110011101010000001010111100 #
1!
#310
0"
b101010110111010000111100010101 %
b101010110111010000111100010101 $
b10101000011111101110100101010 #
0!
#315
0"
b1011100110101101011110000101 %
b1011100110101101011110000101 $
b10000101110101111001101000001011 #
1!
#320
0"
b1110001101111101001011110111000 %
b1110001101111101001011110111000 $
b10111000100101111011111001110001 #
0!
#325
0"
b10000101010000011111001001000010 %
b10000101010000011111001001000010 $
b1000010111100100100000110000101 #
1!
#330
0"
b1001111010101011111001000100111 %
b1001111010101011111001000100111 $
b100111111100100101010101001111 #
0!
#335
0"
b111011011000001100110010011101 %
b111011011000001100110010011101 $
b10011101110011000110000000111011 #
1!
#340
0"
b111010001100110000011000011101 %
b111010001100110000011000011101 $
b11101000001100011001100111010 #
0!
#345
0"
b1111110001100100010001110111111 %
b1111110001100100010001110111111 $
b10111111001000110011001001111110 #
1!
#350
0"
b10101010010111010101000001010 %
b10101010010111010101000001010 $
b1010101010100100101100010101 #
0!
#355
0"
b11110001100110111101100101111000 %
b11110001100110111101100101111000 $
b1111000110110011001101111110001 #
1!
#360
0"
b11011001010010111001110001101100 %
b11011001010010111001110001101100 $
b1101100100111000100101111011001 #
0!
#365
0"
b1100010000001110010001100110001 %
b1100010000001110010001100110001 $
b110001001000110000011101100010 #
1!
#370
0"
b1001100111110110011010100100110 %
b1001100111110110011010100100110 $
b100110001101011111101101001100 #
0!
#375
0"
b10011111010101011010000101001111 %
b10011111010101011010000101001111 $
b1001111101000010101010110011111 #
1!
#380
0"
b10001111101000011011100101000111 %
b10001111101000011011100101000111 $
b1000111101110011010000110001111 #
0!
#385
0"
b11111000101010010110110101111100 %
b11111000101010010110110101111100 $
b1111100011011011010100111111000 #
1!
#390
0"
b10110111011000001100110111011011 %
b10110111011000001100110111011011 $
b11011011110011010110000010110111 #
0!
#395
0"
b10011111010101101100010011001111 %
b10011111010101101100010011001111 $
b11001111110001000101011010011111 #
1!
#400
0"
b1011100100101000111110110101110 %
b1011100100101000111110110101110 $
b10101110011111011001010001011100 #
0!
#405
0"
b1011011110000001100101110101101 %
b1011011110000001100101110101101 $
b10101101110010111100000001011011 #
1!
#410
0"
b10001001001101111101111001000100 %
b10001001001101111101111001000100 $
b1000100110111100011011110001001 #
0!
#415
0"
b1001001001100101010111010100100 %
b1001001001100101010111010100100 $
b10100100101011100011001001001001 #
1!
#420
0"
b11010000001111100010001111101000 %
b11010000001111100010001111101000 $
b11101000001000110011111011010000 #
0!
#425
0"
b11010111110000001111111011101011 %
b11010111110000001111111011101011 $
b11101011111111101100000011010111 #
1!
#430
0"
b1010001111111001100011110101000 %
b1010001111111001100011110101000 $
b10101000110001111111110001010001 #
0!
#435
0"
b10010110001011110010000101001011 %
b10010110001011110010000101001011 $
b1001011001000010010111110010110 #
1!
#440
0"
b1100011111110001110100000110 %
b1100011111110001110100000110 $
b110000111010111111100001100 #
0!
#445
0"
b11000010110011100010110011100001 %
b11000010110011100010110011100001 $
b11100001001011001100111011000010 #
1!
#450
0"
b11001000111011010101011101100100 %
b11001000111011010101011101100100 $
b1100100010101111110110111001000 #
0!
#455
0"
b1110111010110101000001010111011 %
b1110111010110101000001010111011 $
b10111011100000100101101001110111 #
1!
#460
0"
b111101111011011111001000011110 %
b111101111011011111001000011110 $
b11110111100101110110100111101 #
0!
#465
0"
b10010110110110000110000001001 %
b10010110110110000110000001001 $
b1001000011001101101100010010 #
1!
#470
0"
b1111110000000000000010110111111 %
b1111110000000000000010110111111 $
b10111111000001010000000001111110 #
0!
#475
0"
b1101101100000011110010100110110 %
b1101101100000011110010100110110 $
b110110111001011000000101101101 #
1!
#480
0"
b111001111001111101100100011100 %
b111001111001111101100100011100 $
b11100110110011110011100111001 #
0!
#485
0"
b11111100011111101001000001111 %
b11111100011111101001000001111 $
b1111110100101000111100011111 #
1!
#490
0"
b11010011111101101110101111101001 %
b11010011111101101110101111101001 $
b11101001111010111111011011010011 #
0!
#495
0"
b10000101001011111101100101000010 %
b10000101001011111101100101000010 $
b1000010110110010010111110000101 #
1!
#500
0"
b1111000100010000001010010111100 %
b1111000100010000001010010111100 $
b10111100000101001000100001111000 #
0!
#505
0"
b1011011010110011101101000101101 %
b1011011010110011101101000101101 $
b101101110110100101100101011011 #
1!
#510
0"
b1001001010010111000101100100100 %
b1001001010010111000101100100100 $
b100100100010110100101101001001 #
0!
#515
0"
b111111101011101111001010011111 %
b111111101011101111001010011111 $
b10011111111100101010111000111111 #
1!
#520
0"
b101010101011110000110000010101 %
b101010101011110000110000010101 $
b10101000011001010111100101010 #
0!
#525
0"
b1011000011000110001010100101100 %
b1011000011000110001010100101100 $
b101100000101010110001101011000 #
1!
#530
0"
b10000110001110000011111111000011 %
b10000110001110000011111111000011 $
b11000011001111110011100010000110 #
0!
#535
0"
b10001110000011000001101011000111 %
b10001110000011000001101011000111 $
b11000111000110100000110010001110 #
1!
#540
0"
b10011100111100100010111111001110 %
b10011100111100100010111111001110 $
b11001110001011111111001010011100 #
0!
#545
0"
b11111010100110010011010101111101 %
b11111010100110010011010101111101 $
b1111101001101011001100111111010 #
1!
#550
0"
b100110101111000111110110010011 %
b100110101111000111110110010011 $
b10010011011111011011110000100110 #
0!
