wave.vcd
$date
	Thu Mar 12 19:37:58 2026
$end
$version
	Icarus Verilog
$end
$timescale
	1ps
$end
$scope module tb $end
$scope module stim1 $end
$var wire 1 ! clk $end
$upscope $end
$upscope $end
$scope module tb $end
$var wire 1 " tb_mismatch $end
$upscope $end
$scope module tb $end
$var wire 1 # in $end
$upscope $end
$scope module tb $end
$var wire 10 $ state [9:0] $end
$upscope $end
$scope module tb $end
$var wire 10 % next_state_ref [9:0] $end
$upscope $end
$scope module tb $end
$var wire 10 & next_state_dut [9:0] $end
$upscope $end
$scope module tb $end
$var wire 1 ' out1_ref $end
$upscope $end
$scope module tb $end
$var wire 1 ( out1_dut $end
$upscope $end
$scope module tb $end
$var wire 1 ) out2_ref $end
$upscope $end
$scope module tb $end
$var wire 1 * out2_dut $end
$upscope $end
$enddefinitions $end
$comment Show the parameter values. $end
$dumpall
$end
#0
$dumpvars
0*
0)
0(
0'
b0 &
b0 %
b0 $
x#
0"
0!
$end
#5
1!
#10
0!
#15
b1 %
0"
b1 &
0#
b1 $
1!
#20
b1 &
b10 $
0!
#25
1"
b10 &
b100 $
1!
#30
1(
b100 &
b1000 $
0!
#35
0(
b1000 &
b10000 $
1!
#40
b100000000 %
b10000 &
b100000 $
0!
#45
b1000000000 %
b100000 &
b1000000 $
1!
#50
1*
b1 %
1)
b1000000 &
b10000000 $
0!
#55
0*
0)
1'
b10000000 &
b100000000 $
1!
#60
1)
b100000000 &
b1000000000 $
0!
#65
0"
0)
0'
b10 %
b10 &
1#
b1 $
1!
#70
0"
b100 %
b100 &
b10 $
0!
#75
0"
b1000 %
b1000 &
b100 $
1!
#80
1"
1(
b10000 %
b10000 &
b1000 $
0!
#85
0"
0(
b100000 %
b100000 &
b10000 $
1!
#90
0"
b1000000 %
b1000000 &
b100000 $
0!
#95
0"
b10000000 %
b10000000 &
b1000000 $
1!
#100
1"
1*
1)
b100000000 &
b10000000 $
0!
#105
b10 %
0*
0)
1'
b1000000000 &
b100000000 $
1!
#110
1)
b1 &
b1000000000 $
0!
#115
1!
#120
0!
#125
0)
b1000000000 &
b100000000 $
1!
#130
b10000000 %
1*
1)
0'
b100000000 &
b10000000 $
0!
#135
1!
#140
0*
0)
b100000000 %
b10000 &
0#
b100000 $
0!
#145
0"
b100 %
b100 &
1#
b10 $
1!
#150
1"
b10 %
1'
b1000000000 &
b100000000 $
0!
#155
1)
b1 %
b100000000 &
0#
b1000000000 $
1!
#160
0!
#165
b1 %
1*
0'
b1000000 &
b10000000 $
1!
#170
0"
0*
0)
b1000000 %
b1000000 &
1#
b100000 $
0!
#175
0"
b100000 %
b100000 &
b10000 $
1!
#180
1"
b1000000000 %
b100000 &
0#
b1000000 $
0!
#185
1'
b10 %
b1000000000 &
1#
b100000000 $
1!
#190
0"
b100000 %
0'
b100000 &
b10000 $
0!
#195
1"
b10 %
1)
1'
b1 &
b1000000000 $
1!
#200
1(
0)
0'
b1 %
b100 &
0#
b1000 $
0!
#205
0(
1'
b10000000 &
b100000000 $
1!
#210
0"
0'
b100000 %
b100000 &
1#
b10000 $
0!
#215
0"
b1000 %
b1000 &
b100 $
1!
#220
0"
b100 %
b100 &
b10 $
0!
#225
0"
b1000000 %
b1000000 &
b100000 $
1!
#230
1"
1'
b1 %
b10000000 &
0#
b100000000 $
0!
#235
0"
0'
b100 %
b100 &
1#
b10 $
1!
#240
1"
1*
1)
b1 %
b1000000 &
0#
b10000000 $
0!
#245
0*
b1000000000 %
0)
b100000 &
b1000000 $
1!
#250
0!
#255
1*
b1 %
1)
b1000000 &
b10000000 $
1!
#260
0"
0*
0)
b10 %
b10 &
1#
b1 $
0!
#265
1"
1*
1)
b1 %
b1000000 &
0#
b10000000 $
1!
#270
0*
b1000000000 %
0)
b100000 &
b1000000 $
0!
#275
b1 %
b1000 &
b10000 $
1!
#280
1"
1(
b10000 %
b10000 &
1#
b1000 $
0!
#285
0"
0(
b100 %
b100 &
b10 $
1!
#290
0"
b1 %
b1 &
0#
0!
#295
0"
b1000 %
b1000 &
1#
b100 $
1!
#300
1"
1(
b10000 %
b10000 &
b1000 $
0!
#305
0(
b1 %
b1000 &
0#
b10000 $
1!
#310
1)
1'
b10 %
b1 &
1#
b1000000000 $
0!
#315
0"
0)
0'
b10 &
b1 $
1!
#320
1"
1(
b1 %
b100 &
0#
b1000 $
0!
#325
0(
1)
1'
b10 %
b1 &
1#
b1000000000 $
1!
#330
0"
0)
0'
b1 %
b1 &
0#
b10 $
0!
#335
0"
b100 %
b100 &
1#
1!
#340
0"
b1 %
b1 &
0#
b1 $
0!
#345
1"
b1000 &
b10000 $
1!
#350
0"
b100 %
b100 &
1#
b10 $
0!
#355
1"
1'
b1 %
b10000000 &
0#
b100000000 $
1!
#360
0"
0'
b100 %
b100 &
1#
b10 $
0!
#365
1"
b10 %
1)
1'
b1 &
b1000000000 $
1!
#370
1(
0)
0'
b1 %
b100 &
0#
b1000 $
0!
#375
b10000 %
b10000 &
1#
1!
#380
b1 %
b100 &
0#
0!
#385
0(
b10 &
b100 $
1!
#390
b1000 &
b10000 $
0!
#395
b1000000000 %
b100000 &
b1000000 $
1!
#400
0"
b1000000 %
b1000000 &
1#
b100000 $
0!
#405
1"
b10 %
1)
1'
b1 &
b1000000000 $
1!
#410
1*
0'
b1 %
b1000000 &
0#
b10000000 $
0!
#415
0"
0*
0)
b100 %
b100 &
1#
b10 $
1!
#420
1"
1'
b1 %
b10000000 &
0#
b100000000 $
0!
#425
0"
0'
b100 %
b100 &
1#
b10 $
1!
#430
0"
b10000000 %
b10000000 &
b1000000 $
0!
#435
1"
1(
b10000 %
b10000 &
b1000 $
1!
#440
0(
1*
1)
b1 %
b1000000 &
0#
b10000000 $
0!
#445
0*
0)
1'
b10000000 &
b100000000 $
1!
#450
b100000000 %
0'
b10000 &
b100000 $
0!
#455
b1000000000 %
b100000 &
b1000000 $
1!
#460
1)
1'
b10 %
b1 &
1#
b1000000000 $
0!
#465
0"
0)
0'
b1 %
b1 &
0#
b1 $
1!
#470
1"
1*
1)
b1000000 &
b10000000 $
0!
#475
0*
0)
b1000 &
b10000 $
1!
#480
b100000000 %
b10000 &
b100000 $
0!
#485
0"
b100000 %
b100000 &
1#
b10000 $
1!
#490
0"
b10000000 %
b10000000 &
b1000000 $
0!
#495
0"
b100 %
b100 &
b10 $
1!
#500
1"
b10 %
1)
1'
b1 &
b1000000000 $
0!
#505
0"
0)
0'
b1 %
b1 &
0#
b1 $
1!
#510
0"
b10000000 %
b10000000 &
1#
b1000000 $
0!
#515
1"
b1000000000 %
b100000 &
0#
1!
#520
1*
1)
b10000000 %
b100000000 &
1#
b10000000 $
0!
#525
0*
0)
b1 %
b1000 &
0#
b10000 $
1!
#530
0"
b10000000 %
b10000000 &
1#
b1000000 $
0!
#535
0"
b1 %
b1 &
0#
b10 $
1!
#540
1"
b10 &
b100 $
0!
#545
0"
b1000000 %
b1000000 &
1#
b100000 $
1!
#550
1"
b1 %
b1000 &
0#
b10000 $
0!
#555
0"
b10 %
b10 &
1#
b1 $
1!
#560
1"
1'
b1 %
b10000000 &
0#
b100000000 $
0!
#565
1)
b100000000 &
b1000000000 $
1!
#570
0)
b10000000 &
b100000000 $
0!
#575
0"
0'
b1 &
b10 $
1!
#580
0"
b1000000 %
b1000000 &
1#
b100000 $
0!
#585
1"
b1 %
b1000 &
0#
b10000 $
1!
#590
1'
b10000000 &
b100000000 $
0!
#595
0"
0'
b1 &
b10 $
1!
#600
b1 &
b1 $
0!
#605
0"
b100000 %
b100000 &
1#
b10000 $
1!
#610
0"
b1000000 %
b1000000 &
b100000 $
0!
#615
0"
b10000000 %
b10000000 &
b1000000 $
1!
#620
0"
b100 %
b100 &
b10 $
0!
#625
0"
b1 %
b1 &
0#
b1 $
1!
#630
0"
b100 %
b100 &
1#
b10 $
0!
#635
1!
#640
1"
1(
b1 %
b100 &
0#
b1000 $
0!
#645
b10000 %
b10000 &
1#
1!
#650
0(
b1000000000 %
b100000 &
0#
b1000000 $
0!
#655
b1 %
b1000 &
b10000 $
1!
#660
1)
1'
b10 %
b1 &
1#
b1000000000 $
0!
#665
0)
0'
b1 %
b10 &
0#
b100 $
1!
#670
1*
1)
b1000000 &
b10000000 $
0!
#675
0"
0*
0)
b1000 %
b1000 &
1#
b100 $
1!
#680
1"
b1 %
b1000 &
0#
b10000 $
0!
#685
1)
1'
b100000000 &
b1000000000 $
1!
#690
0"
0)
0'
b1000 %
b1000 &
1#
b100 $
0!
#695
0"
b100 %
b100 &
b10 $
1!
#700
0"
b1 %
b1 &
0#
b1 $
0!
#705
0"
b1000 %
b1000 &
1#
b100 $
1!
#710
1"
b1 %
b10 &
0#
0!
#715
0"
b1 &
b10 $
1!
#720
1"
b1000 &
b10000 $
0!
#725
0"
b1000 %
b1000 &
1#
b100 $
1!
#730
1"
b1 %
b10 &
0#
0!
#735
0"
b1000 %
b1000 &
1#
1!
#740
0"
b1 %
b1 &
0#
b10 $
0!
#745
1"
1)
1'
b10 %
b1 &
1#
b1000000000 $
1!
#750
0"
b1000000 %
0)
0'
b1000000 &
b100000 $
0!
#755
0"
b10000000 %
b10000000 &
b1000000 $
1!
#760
0"
b1000000 %
b1000000 &
b100000 $
0!
#765
1"
b1000000000 %
b100000 &
0#
b1000000 $
1!
#770
b1 %
1)
1'
b100000000 &
b1000000000 $
0!
#775
0"
0)
0'
b10000000 %
b10000000 &
1#
b1000000 $
1!
#780
1"
b100000000 %
b10000 &
0#
b100000 $
0!
#785
0"
b1000 %
b1000 &
1#
b100 $
1!
#790
1"
1'
b1 %
b10000000 &
0#
b100000000 $
0!
#795
1)
b100000000 &
b1000000000 $
1!
#800
1(
0)
0'
b10000 %
b10000 &
1#
b1000 $
0!
#805
0"
0(
b10000000 %
b10000000 &
b1000000 $
1!
#810
0"
b10 %
b10 &
b1 $
0!
#815
1"
b1 %
b1000 &
0#
b10000 $
1!
#820
1*
1)
b1000000 &
b10000000 $
0!
#825
0*
b1000000000 %
0)
b100000 &
b1000000 $
1!
#830
0"
b1000000 %
b1000000 &
1#
b100000 $
0!
#835
0"
b100 %
b100 &
b10 $
1!
#840
1"
b100000000 %
b10000 &
0#
b100000 $
0!
#845
1)
1'
b10 %
b1 &
1#
b1000000000 $
1!
#850
b1 %
b100000000 &
0#
0!
#855
b1 %
0)
0'
b10 &
b100 $
1!
#860
0!
#865
0"
b100000 %
b100000 &
1#
b10000 $
1!
#870
1"
b10 %
1)
1'
b1 &
b1000000000 $
0!
#875
0"
b100 %
0)
0'
b100 &
b10 $
1!
#880
1"
1*
b10000000 %
1)
b100000000 &
b10000000 $
0!
#885
0"
0*
0)
b10000000 &
b1000000 $
1!
#890
0"
b1000000 %
b1000000 &
b100000 $
0!
#895
0"
b100 %
b100 &
b10 $
1!
#900
1"
1*
b10000000 %
1)
b100000000 &
b10000000 $
0!
#905
0"
0*
0)
b1 %
b1 &
0#
b10 $
1!
#910
0"
b10000000 %
b10000000 &
1#
b1000000 $
0!
#915
1"
1*
1)
b1 %
b1000000 &
0#
b10000000 $
1!
#920
0*
0)
b1000 &
b10000 $
0!
#925
0"
b10000000 %
b10000000 &
1#
b1000000 $
1!
#930
1"
b1 %
b1000 &
0#
b10000 $
0!
#935
1'
b10000000 &
b100000000 $
1!
#940
0"
0'
b1 &
b1 $
0!
#945
1"
b100000000 %
b10000 &
b100000 $
1!
#950
0"
b1000 %
b1000 &
1#
b100 $
0!
#955
1"
b1 %
b1000 &
0#
b10000 $
1!
#960
1'
b10000000 &
b100000000 $
0!
#965
0"
0'
b1000000 %
b1000000 &
1#
b100000 $
1!
#970
1"
1*
b10000000 %
1)
b100000000 &
b10000000 $
0!
#975
0*
1'
b1 %
b100000000 &
0#
b1000000000 $
1!
#980
b10 %
b1 &
1#
0!
#985
1(
0)
0'
b1 %
b100 &
0#
b1000 $
1!
#990
0!
#995
0"
0(
b10000000 %
b10000000 &
1#
b1000000 $
1!
#1000
1"
b100000000 %
b10000 &
0#
b100000 $
0!
#1005
1!
#1010
0"
b100000 %
b100000 &
1#
b10000 $
0!
#1015
1"
b1000000000 %
b100000 &
0#
b1000000 $
1!
#1020
0!
#1025
1)
1'
b10 %
b1 &
1#
b1000000000 $
1!
#1030
0"
b100 %
0)
0'
b100 &
b10 $
0!
#1035
0"
b1000 %
b1000 &
b100 $
1!
#1040
0"
b100 %
b100 &
b10 $
0!
#1045
1!
#1050
0!
#1055
1"
b10 %
1'
b1000000000 &
b100000000 $
1!
#1060
0"
0'
b10 &
b1 $
0!
#1065
1"
b1000000000 %
b100000 &
0#
b1000000 $
1!
#1070
b1 %
1)
1'
b100000000 &
b1000000000 $
0!
#1075
b1 %
0)
0'
b1000 &
b10000 $
1!
#1080
b10 &
b100 $
0!
#1085
0"
b1 &
b10 $
1!
#1090
1"
1'
b10000000 &
b100000000 $
0!
#1095
0'
b10 &
b100 $
1!
#1100
0"
b10 %
b10 &
1#
b1 $
0!
#1105
1!
#1110
1"
b1000000000 %
b100000 &
0#
b1000000 $
0!
#1115
b1 %
1)
1'
b100000000 &
b1000000000 $
1!
#1120
1*
0'
b10000000 %
b100000000 &
1#
b10000000 $
0!
